{
	"info": {
		"_postman_id": "46e0b7e9-a9f3-4a96-bd88-d227458a522d",
		"name": "S34-Activity",
		"schema": "https://schema.getpostman.com/json/collection/v2.1.0/collection.json",
		"_exporter_id": "23151249"
	},
	"item": [
		{
			"name": "home route",
			"request": {
				"method": "GET",
				"header": []
			},
			"response": []
		},
		{
			"name": "get users",
			"request": {
				"method": "GET",
				"header": []
			},
			"response": []
		},
		{
			"name": "delete user",
			"request": {
				"method": "DELETE",
				"header": [],
				"url": {
					"raw": "http://localhost:3000//delete-user",
					"protocol": "http",
					"host": [
						"localhost"
					],
					"port": "3000",
					"path": [
						"",
						"delete-user"
					]
				}
			},
			"response": []
		}
	]
}